{
    "CommercialOfferList":{
        "CommercialOffer":[
            {
                "OfferGroup":{
                    "ProductId":"newProduct1",
                    "ProductTypeId":"7971",
                    "CommercialPlanId":"255",
                    "ParentComponentId":"",
                    "ComponentId":"newCmp2",
                    "ComponentTypeId":"7005",
                    "ServiceClassId":"32",
                    "ServiceClassDescription":"PACK HBO HD",
                    "StatusId":"1",
                    "Amount":"0"
                }
            },
            {
                "OfferGroup":{
                    "ProductId":"newProduct1",
                    "ProductTypeId":"7971",
                    "CommercialPlanId":"255",
                    "ParentComponentId":"",
                    "ComponentId":"newCmp3",
                    "ComponentTypeId":"7005",
                    "ServiceClassId":"33",
                    "ServiceClassDescription":"Pack Fox+ HD",
                    "StatusId":"1",
                    "Amount":"0"
                }
            },
            {
                "OfferGroup":{
                    "ProductId":"newProduct1",
                    "ProductTypeId":"7971",
                    "CommercialPlanId":"255",
                    "ParentComponentId":"",
                    "ComponentId":"newCmp4",
                    "ComponentTypeId":"7097",
                    "ServiceClassId":"2897",
                    "ServiceClassDescription":"Pack Básico",
                    "StatusId":"1",
                    "Amount":"0"
                }
            },
            {
                "OfferGroup":{
                    "ProductId":"newProduct1",
                    "ProductTypeId":"7971",
                    "CommercialPlanId":"255",
                    "ParentComponentId":"",
                    "ComponentId":"newCmp5",
                    "ComponentTypeId":"7098",
                    "ServiceClassId":"2898",
                    "ServiceClassDescription":"Pack Deportes",
                    "StatusId":"1",
                    "Amount":"0"
                }
            },
            {
                "OfferGroup":{
                    "ProductId":"newProduct1",
                    "ProductTypeId":"7971",
                    "CommercialPlanId":"255",
                    "ParentComponentId":"",
                    "ComponentId":"newCmp6",
                    "ComponentTypeId":"7098",
                    "ServiceClassId":"2899",
                    "ServiceClassDescription":"Pack Infantiles",
                    "StatusId":"1",
                    "Amount":"0"
                }
            },
            {
                "OfferGroup":{
                    "ProductId":"newProduct1",
                    "ProductTypeId":"7971",
                    "CommercialPlanId":"255",
                    "ParentComponentId":"",
                    "ComponentId":"newCmp7",
                    "ComponentTypeId":"7098",
                    "ServiceClassId":"2900",
                    "ServiceClassDescription":"Pack Documentales",
                    "StatusId":"1",
                    "Amount":"0"
                }
            },
            {
                "OfferGroup":{
                    "ProductId":"newProduct1",
                    "ProductTypeId":"7971",
                    "CommercialPlanId":"255",
                    "ParentComponentId":"",
                    "ComponentId":"newCmp8",
                    "ComponentTypeId":"7099",
                    "ServiceClassId":"2440",
                    "ServiceClassDescription":"Pack 1000",
                    "StatusId":"1",
                    "Amount":"0"
                }
            },
            {
                "OfferGroup":{
                    "ProductId":"newProduct1",
                    "ProductTypeId":"7971",
                    "CommercialPlanId":"255",
                    "ParentComponentId":"",
                    "ComponentId":"newCmp9",
                    "ComponentTypeId":"7099",
                    "ServiceClassId":"2901",
                    "ServiceClassDescription":"Pack Simultaneidad",
                    "StatusId":"1",
                    "Amount":"0"
                }
            },
            {
                "OfferGroup":{
                    "ProductId":"newProduct1",
                    "ProductTypeId":"7971",
                    "CommercialPlanId":"255",
                    "ParentComponentId":"",
                    "ComponentId":"newCmp10",
                    "ComponentTypeId":"7099",
                    "ServiceClassId":"2902",
                    "ServiceClassDescription":"Pack Grabación",
                    "StatusId":"1",
                    "Amount":"0"
                }
            },
            {
                "OfferGroup":{
                    "ProductId":"newProduct1",
                    "ProductTypeId":"7971",
                    "CommercialPlanId":"255",
                    "ParentComponentId":"",
                    "ComponentId":"newCmp11",
                    "ComponentTypeId":"7099",
                    "ServiceClassId":"2903",
                    "ServiceClassDescription":"Pack SVA 1",
                    "StatusId":"1",
                    "Amount":"0"
                }
            },
            {
                "OfferGroup":{
                    "ProductId":"newProduct1",
                    "ProductTypeId":"7971",
                    "CommercialPlanId":"255",
                    "ParentComponentId":"",
                    "ComponentId":"newCmp12",
                    "ComponentTypeId":"7099",
                    "ServiceClassId":"2904",
                    "ServiceClassDescription":"Pack SVA 2",
                    "StatusId":"1",
                    "Amount":"0"
                }
            },
            {
                "OfferGroup":{
                    "ProductId":"newProduct1",
                    "ProductTypeId":"7971",
                    "CommercialPlanId":"255",
                    "ParentComponentId":"",
                    "ComponentId":"newCmp13",
                    "ComponentTypeId":"7099",
                    "ServiceClassId":"2905",
                    "ServiceClassDescription":"Pack SVA 3",
                    "StatusId":"1",
                    "Amount":"0"
                }
            },
            {
                "OfferGroup":{
                    "ProductId":"newProduct1",
                    "ProductTypeId":"7971",
                    "CommercialPlanId":"255",
                    "ParentComponentId":"",
                    "ComponentId":"newCmp14",
                    "ComponentTypeId":"7099",
                    "ServiceClassId":"2906",
                    "ServiceClassDescription":"Dongle",
                    "StatusId":"1",
                    "Amount":"0"
                }
            }
        ]
    }
}